8.3 Interpretation of MLR terms | Intermediate Statistics with R
…
elevs <- seq(from = 5000, to = 8000, length.out = 30)
newdata1 <- tibble(Elevation = elevs, Min.Temp = rep(27.826,30),
                   Max.Temp = rep(36.3913,30))
newdata1

## # A tibble: 30 × 3
##    Elevation Min.Temp Max.Temp
##        <dbl>    <dbl>    <dbl>
##  1     5000      27.8     36.4
##  2     5103.     27.8     36.4
##  3     5207.     27.8     36.4
##  4     5310.     27.8     36.4
##  5     5414.     27.8     36.4
##  6     5517.     27.8     36.4
##  7     5621.     27.8     36.4
##  8     5724.     27.8     36.4
##  9     5828.     27.8     36.4
## 10     5931.     27.8     36.4
## # ℹ 20 more rows
…
